[Mon Jan 15 2018 22:17:10 GMT+0000 (UTC),22] User ID=5a5d0690c5ec9410177c5b2a, Location URL=/stations
[Mon Jan 15 2018 22:17:14 GMT+0000 (UTC),22] User ID=5a5d0690c5ec9410177c5b2a, Location URL=/station/5a5d02b35a1cb70fde1f6646
[Mon Jan 15 2018 22:36:44 GMT+0000 (UTC),22] User ID=5a5d0690c5ec9410177c5b2a, Location URL=/stations
[Mon Jan 15 2018 23:24:12 GMT+0000 (UTC),23] User ID=5a58ae0f0df2f81a6335d542, Location URL=/stations
[Mon Jan 15 2018 23:30:00 GMT+0000 (UTC),23] User ID=5a58ae0f0df2f81a6335d542, Location URL=/stations
[Mon Jan 15 2018 23:30:01 GMT+0000 (UTC),23] User ID=5a58ae0f0df2f81a6335d542, Location URL=/playlists
[Mon Jan 15 2018 23:30:09 GMT+0000 (UTC),23] User ID=5a58ae0f0df2f81a6335d542, Location URL=/station/5a58ae0f0df2f81a6335d542
